…
# Print the merged dataset with cleaned column names
print(merged_data)
```

    ## # A tibble: 5,512 × 102
    ##    hebrew_year.x district.x muni_id muni_name.x    sid school_name   exam_purity
    ##    <chr>         <chr>      <chr>   <chr>        <dbl> <chr>         <chr>      
    ##  1 תשעו          דרום       315     אופקים      640102 "מוסדות בני … ירוק       
    ##  2 תשעו          דרום       315     אופקים      641001 "אזורי עתיד … ירוק       
    ##  3 תשעו          דרום       315     אופקים      770057 "מדעים ואמנו… ירוק       
    ##  4 תשעו          דרום       703     אשדוד       440487 "ישיבת נוה ה… ירוק       
    ##  5 תשעו          דרום       703     אשדוד       630764 "מרכז נוער ע… ירוק       
    ##  6 תשעו          דרום       703     אשדוד       640128 "מקיף א כללי" ירוק       
    ##  7 תשעו          דרום       703     אשדוד       640136 "מקיף דתי ע\… צהוב       
    ##  8 תשעו          דרום       703     אשדוד       640482 "מקיף ד'"     ירוק       
    ##  9 תשעו          דרום       703     אשדוד       640581 "אולפנא ע\"ש… ירוק       
    ## 10 תשעו          דרום       703     אשדוד       640672 "מקיף ה' כלל… ירוק       
    ## # ℹ 5,502 more rows
    ## # ℹ 95 more variables: sector <chr>, type <chr>,
    ## #   number_of_students_yodbet <dbl>, bagrut <dbl>, bagrut_reg_ed <dbl>,
    ## #   bagrut_excell <dbl>, bagrut_reg_ed_excell <dbl>, english_4 <dbl>,
    ## #   english_4_reg_ed <dbl>, english_5 <dbl>, english_5_reg_ed <dbl>,
    ## #   math_4 <dbl>, math_4_reg_ed <dbl>, math_5 <dbl>, math_5_reg_ed <dbl>,
    ## #   year.x <dbl>, youth_at_risk <lgl>, pentile <chr>, …
…
